Anne-Hebert	139
(46.837920,-71.205845)
Beausoleil	66
(46.820370,-71.241277)
Cardinal-Roy	40
(46.835672,-71.210382)
Cardinal-Roy-de-La-Chaumiere	119
(46.836276,-71.209163)
Cardinal-Roy-de-la-Mosaique	40
(46.840733,-71.200165)
Cardinal-Roy-de-lApprenti-Sage	98
(46.812622,-71.256922)
Cardinal-Roy-deLEscabelle	57
(46.818041,-71.245979)
De-la-Capitale	73
(46.835087,-71.211564)
École-des-Grands-Saules	137
(46.815780,-71.250545)
Dominique-Savio	93
(46.826653,-71.228593)
École-du-Buisson	106
(46.823638,-71.234679)
École-Du-Domaine	139
(46.829601,-71.222640)
École-de-la-Farandole	61
(46.819205,-71.243630)
École-internationale-de-Saint-Sacrement	105
(46.825056,-71.231818)
Jean-de-Brebeuf	84
(46.842330,-71.196940)
De-la-Capitale	110
(46.840912,-71.199804)
Joseph-François-Perrault	120
(46.829870,-71.222097)
Marie-Renouard	130
(46.833082,-71.215612)
Marguerite-Bourgeoys	53
(46.810419,-71.261368)
Monseigneur-Robert	51
(46.828739,-71.224381)
Notre-Dame-de-Roc-Amadour	73
(46.805487,-71.271327)
Notre-Dame-des-Neiges	140
(46.814406,-71.253318)
Notre-Dame-du-Parc	41
(46.810247,-71.261716)
Notre-Dame-de-la-Primerose	74
(46.836502,-71.208707)
Notre-Dame-aux-Quatre-Vents	138
(46.811013,-71.260170)
Notre-Dame-regionale-des-Quatre-Saisons	46
(46.820629,-71.240756)
Notre-Dame-de-la-Relance	64
(46.809954,-71.262307)
Notre-Dame-de-la-Ribambelle	72
(46.809128,-71.263975)
Saint-Albert-le-Grand	91
(46.844169,-71.193228)
Sainte-Chretienne	139
(46.813437,-71.255276)