Anne-Hebert	134
(46.837920,-71.205845)
Beausoleil	140
(46.820370,-71.241277)
Cardinal-Roy	115
(46.835672,-71.210382)
Cardinal-Roy-de-La-Chaumiere	132
(46.836276,-71.209163)
Cardinal-Roy-de-la-Mosaique	126
(46.840733,-71.200165)
Cardinal-Roy-de-lApprenti-Sage	129
(46.812622,-71.256922)
Cardinal-Roy-deLEscabelle	108
(46.818041,-71.245979)
De-la-Capitale	89
(46.835087,-71.211564)
École-des-Grands-Saules	98
(46.815780,-71.250545)
Dominique-Savio	105
(46.826653,-71.228593)
École-du-Buisson	118
(46.823638,-71.234679)
École-Du-Domaine	46
(46.829601,-71.222640)
École-de-la-Farandole	98
(46.819205,-71.243630)
École-internationale-de-Saint-Sacrement	78
(46.825056,-71.231818)
Jean-de-Brebeuf	106
(46.842330,-71.196940)
De-la-Capitale	67
(46.840912,-71.199804)
Joseph-François-Perrault	116
(46.829870,-71.222097)
Marie-Renouard	102
(46.833082,-71.215612)
Marguerite-Bourgeoys	77
(46.810419,-71.261368)
Monseigneur-Robert	47
(46.828739,-71.224381)